// Jest Snapshot v1, https://goo.gl/fbAQLP

exports[`GiphyViewer.render 1`] = `
<View
  style={
    Array [
      Object {
        "alignItems": "stretch",
        "backgroundColor": "#F1F1F1",
        "flex": 1,
        "justifyContent": "flex-start",
      },
      Object {
        "flexDirection": "column",
      },
    ]
  }
>
  <View
    style={
      Object {
        "alignItems": "center",
        "backgroundColor": "#2D2D2D",
        "flex": 1,
        "flexDirection": "column",
        "justifyContent": "space-around",
      }
    }
  >
    <Text
      accessible={true}
      allowFontScaling={true}
      ellipsizeMode="tail"
      style={
        Object {
          "color": "#A8A6A6",
          "fontFamily": "Lato",
          "fontSize": 24,
          "textAlign": "center",
        }
      }
    >
      Black Swan Giphy Viewer
    </Text>
    <TouchableOpacity
      activeOpacity={0.2}
      onPress={[Function]}
      style={
        Object {
          "height": 64,
          "width": 64,
        }
      }
    >
      <Image
        resizeMode="contain"
        source={1}
        style={
          Object {
            "alignSelf": "stretch",
            "flex": 1,
            "height": undefined,
            "width": undefined,
          }
        }
      />
    </TouchableOpacity>
    <Connect(DumbSearchBox) />
  </View>
  <If
    condition={true}
  >
    <View
      style={
        Object {
          "flex": 1,
        }
      }
    >
      <Connect(DumbSearchResults) />
    </View>
  </If>
</View>
`;

exports[`GiphyViewer.render 2`] = `
<View
  style={
    Array [
      Object {
        "alignItems": "stretch",
        "backgroundColor": "#F1F1F1",
        "flex": 1,
        "justifyContent": "flex-start",
      },
      Object {
        "flexDirection": "row",
      },
    ]
  }
>
  <View
    style={
      Object {
        "alignItems": "center",
        "backgroundColor": "#2D2D2D",
        "flex": 1,
        "flexDirection": "column",
        "justifyContent": "space-around",
      }
    }
  >
    <Text
      accessible={true}
      allowFontScaling={true}
      ellipsizeMode="tail"
      style={
        Object {
          "color": "#A8A6A6",
          "fontFamily": "Lato",
          "fontSize": 24,
          "textAlign": "center",
        }
      }
    >
      Black Swan Giphy Viewer
    </Text>
    <TouchableOpacity
      activeOpacity={0.2}
      onPress={[Function]}
      style={
        Object {
          "height": 64,
          "width": 64,
        }
      }
    >
      <Image
        resizeMode="contain"
        source={1}
        style={
          Object {
            "alignSelf": "stretch",
            "flex": 1,
            "height": undefined,
            "width": undefined,
          }
        }
      />
    </TouchableOpacity>
    <Connect(DumbSearchBox) />
  </View>
  <If
    condition={true}
  >
    <View
      style={
        Object {
          "flex": 1,
        }
      }
    >
      <Connect(DumbSearchResults) />
    </View>
  </If>
</View>
`;

exports[`GiphyViewer.render 3`] = `
<View
  style={
    Array [
      Object {
        "alignItems": "stretch",
        "backgroundColor": "#F1F1F1",
        "flex": 1,
        "justifyContent": "flex-start",
      },
      Object {},
    ]
  }
>
  <View
    style={
      Object {
        "alignItems": "center",
        "backgroundColor": "#2D2D2D",
        "flex": 1,
        "flexDirection": "column",
        "justifyContent": "space-around",
      }
    }
  >
    <Text
      accessible={true}
      allowFontScaling={true}
      ellipsizeMode="tail"
      style={
        Object {
          "color": "#A8A6A6",
          "fontFamily": "Lato",
          "fontSize": 24,
          "textAlign": "center",
        }
      }
    >
      Black Swan Giphy Viewer
    </Text>
    <TouchableOpacity
      activeOpacity={0.2}
      onPress={[Function]}
      style={
        Object {
          "height": 64,
          "width": 64,
        }
      }
    >
      <Image
        resizeMode="contain"
        source={1}
        style={
          Object {
            "alignSelf": "stretch",
            "flex": 1,
            "height": undefined,
            "width": undefined,
          }
        }
      />
    </TouchableOpacity>
    <Connect(DumbSearchBox) />
  </View>
  <If
    condition={true}
  >
    <View
      style={
        Object {
          "flex": 1,
        }
      }
    >
      <Connect(DumbSearchResults) />
    </View>
  </If>
</View>
`;

exports[`GiphyViewer.render 4`] = `
<View
  style={
    Array [
      Object {
        "alignItems": "stretch",
        "backgroundColor": "#F1F1F1",
        "flex": 1,
        "justifyContent": "flex-start",
      },
      Object {
        "flexDirection": "column",
      },
    ]
  }
>
  <View
    style={
      Object {
        "alignItems": "center",
        "backgroundColor": "#2D2D2D",
        "flex": 1,
        "flexDirection": "column",
        "justifyContent": "space-around",
      }
    }
  >
    <Text
      accessible={true}
      allowFontScaling={true}
      ellipsizeMode="tail"
      style={
        Object {
          "color": "#A8A6A6",
          "fontFamily": "Lato",
          "fontSize": 24,
          "textAlign": "center",
        }
      }
    >
      Black Swan Giphy Viewer
    </Text>
    <TouchableOpacity
      activeOpacity={0.2}
      onPress={[Function]}
      style={
        Object {
          "height": 64,
          "width": 64,
        }
      }
    >
      <Image
        resizeMode="contain"
        source={1}
        style={
          Object {
            "alignSelf": "stretch",
            "flex": 1,
            "height": undefined,
            "width": undefined,
          }
        }
      />
    </TouchableOpacity>
    <Connect(DumbSearchBox) />
  </View>
  <If
    condition={false}
  >
    <View
      style={
        Object {
          "flex": 1,
        }
      }
    >
      <Connect(DumbSearchResults) />
    </View>
  </If>
</View>
`;

exports[`GiphyViewer.render 5`] = `
<View
  style={
    Array [
      Object {
        "alignItems": "stretch",
        "backgroundColor": "#F1F1F1",
        "flex": 1,
        "justifyContent": "flex-start",
      },
      Object {
        "flexDirection": "row",
      },
    ]
  }
>
  <View
    style={
      Object {
        "alignItems": "center",
        "backgroundColor": "#2D2D2D",
        "flex": 1,
        "flexDirection": "column",
        "justifyContent": "space-around",
      }
    }
  >
    <Text
      accessible={true}
      allowFontScaling={true}
      ellipsizeMode="tail"
      style={
        Object {
          "color": "#A8A6A6",
          "fontFamily": "Lato",
          "fontSize": 24,
          "textAlign": "center",
        }
      }
    >
      Black Swan Giphy Viewer
    </Text>
    <TouchableOpacity
      activeOpacity={0.2}
      onPress={[Function]}
      style={
        Object {
          "height": 64,
          "width": 64,
        }
      }
    >
      <Image
        resizeMode="contain"
        source={1}
        style={
          Object {
            "alignSelf": "stretch",
            "flex": 1,
            "height": undefined,
            "width": undefined,
          }
        }
      />
    </TouchableOpacity>
    <Connect(DumbSearchBox) />
  </View>
  <If
    condition={false}
  >
    <View
      style={
        Object {
          "flex": 1,
        }
      }
    >
      <Connect(DumbSearchResults) />
    </View>
  </If>
</View>
`;

exports[`GiphyViewer.render 6`] = `
<View
  style={
    Array [
      Object {
        "alignItems": "stretch",
        "backgroundColor": "#F1F1F1",
        "flex": 1,
        "justifyContent": "flex-start",
      },
      Object {},
    ]
  }
>
  <View
    style={
      Object {
        "alignItems": "center",
        "backgroundColor": "#2D2D2D",
        "flex": 1,
        "flexDirection": "column",
        "justifyContent": "space-around",
      }
    }
  >
    <Text
      accessible={true}
      allowFontScaling={true}
      ellipsizeMode="tail"
      style={
        Object {
          "color": "#A8A6A6",
          "fontFamily": "Lato",
          "fontSize": 24,
          "textAlign": "center",
        }
      }
    >
      Black Swan Giphy Viewer
    </Text>
    <TouchableOpacity
      activeOpacity={0.2}
      onPress={[Function]}
      style={
        Object {
          "height": 64,
          "width": 64,
        }
      }
    >
      <Image
        resizeMode="contain"
        source={1}
        style={
          Object {
            "alignSelf": "stretch",
            "flex": 1,
            "height": undefined,
            "width": undefined,
          }
        }
      />
    </TouchableOpacity>
    <Connect(DumbSearchBox) />
  </View>
  <If
    condition={false}
  >
    <View
      style={
        Object {
          "flex": 1,
        }
      }
    >
      <Connect(DumbSearchResults) />
    </View>
  </If>
</View>
`;
