// Jest Snapshot v1, https://goo.gl/fbAQLP

exports[`SearchBox.api 1`] = `
Array [
  Array [
    Object {
      "focus": true,
      "type": "FOCUS_TEXT",
    },
  ],
  Array [
    Object {
      "focus": false,
      "type": "FOCUS_TEXT",
    },
  ],
  Array [
    Object {
      "text": "changed",
      "type": "UPDATE_TEXT",
    },
  ],
  Array [
    [Function],
  ],
]
`;

exports[`SearchBox.render 1`] = `
<View
  style={
    Object {
      "borderColor": "#A8A6A6",
      "borderWidth": 1,
    }
  }
>
  <TextInput
    allowFontScaling={true}
    autoCorrect={false}
    maxLength={20}
    onBlur={[Function]}
    onChangeText={[Function]}
    onEndEditing={[Function]}
    onFocus={[Function]}
    placeholder="Search"
    placeholderTextColor="#5D5D5D"
    returnKeyType="search"
    style={
      Object {
        "color": "#A8A6A6",
        "fontFamily": "Lato",
        "fontSize": 23,
        "textAlign": "center",
        "width": 240,
      }
    }
    underlineColorAndroid="transparent"
    value="text"
  />
</View>
`;
